[api-updater (non-obsolete-error-filter)] 3/16/2023 12:25:47 PM : Starting C:/Program Files/Unity/Hub/Editor/2020.3.33f1/Editor/Data/Tools/ScriptUpdater/APIUpdater.NonObsoleteApiUpdaterDetector.exe
[api-updater (non-obsolete-error-filter)] 
----------------------------------
jit/startup time      : 329.3693ms
moved types parse time: 55ms
candidates parse time : 3ms
C# parse time         : 174ms
candidates check time : 18ms
console write time    : 0ms

[api-updater (non-obsolete-error-filter)] 2/14/2024 12:02:11 PM : Starting C:/Program Files/Unity/Hub/Editor/2020.3.37f1/Editor/Data/Tools/ScriptUpdater/APIUpdater.NonObsoleteApiUpdaterDetector.exe
[api-updater (non-obsolete-error-filter)] 
----------------------------------
jit/startup time      : 1877.8268ms
moved types parse time: 34ms
candidates parse time : 1ms
C# parse time         : 139ms
candidates check time : 18ms
console write time    : 0ms

